QuatusProjects/aula2Atividade2/simulation/qsim/Aula2Atividade2.msim.vcd
$comment
	File created using the following command:
		vcd file Aula2Atividade2.msim.vcd -direction
$end
$date
	Wed Aug 24 11:25:11 2022
$end
$version
	ModelSim Version 2020.1
$end
$timescale
	1ps
$end

$scope module aula2atividade2_vhd_vec_tst $end
$var wire 1 ! CLOCK_50 $end
$var wire 1 " KEY [3] $end
$var wire 1 # KEY [2] $end
$var wire 1 $ KEY [1] $end
$var wire 1 % KEY [0] $end
$var wire 1 & LEDR [9] $end
$var wire 1 ' LEDR [8] $end
$var wire 1 ( LEDR [7] $end
$var wire 1 ) LEDR [6] $end
$var wire 1 * LEDR [5] $end
$var wire 1 + LEDR [4] $end
$var wire 1 , LEDR [3] $end
$var wire 1 - LEDR [2] $end
$var wire 1 . LEDR [1] $end
$var wire 1 / LEDR [0] $end
$var wire 1 0 PC_OUT [2] $end
$var wire 1 1 PC_OUT [1] $end
$var wire 1 2 PC_OUT [0] $end
$var wire 1 3 SW [9] $end
$var wire 1 4 SW [8] $end
$var wire 1 5 SW [7] $end
$var wire 1 6 SW [6] $end
$var wire 1 7 SW [5] $end
$var wire 1 8 SW [4] $end
$var wire 1 9 SW [3] $end
$var wire 1 : SW [2] $end
$var wire 1 ; SW [1] $end
$var wire 1 < SW [0] $end

$scope module i1 $end
$var wire 1 = gnd $end
$var wire 1 > vcc $end
$var wire 1 ? unknown $end
$var wire 1 @ devoe $end
$var wire 1 A devclrn $end
$var wire 1 B devpor $end
$var wire 1 C ww_devoe $end
$var wire 1 D ww_devclrn $end
$var wire 1 E ww_devpor $end
$var wire 1 F ww_CLOCK_50 $end
$var wire 1 G ww_KEY [3] $end
$var wire 1 H ww_KEY [2] $end
$var wire 1 I ww_KEY [1] $end
$var wire 1 J ww_KEY [0] $end
$var wire 1 K ww_SW [9] $end
$var wire 1 L ww_SW [8] $end
$var wire 1 M ww_SW [7] $end
$var wire 1 N ww_SW [6] $end
$var wire 1 O ww_SW [5] $end
$var wire 1 P ww_SW [4] $end
$var wire 1 Q ww_SW [3] $end
$var wire 1 R ww_SW [2] $end
$var wire 1 S ww_SW [1] $end
$var wire 1 T ww_SW [0] $end
$var wire 1 U ww_PC_OUT [2] $end
$var wire 1 V ww_PC_OUT [1] $end
$var wire 1 W ww_PC_OUT [0] $end
$var wire 1 X ww_LEDR [9] $end
$var wire 1 Y ww_LEDR [8] $end
$var wire 1 Z ww_LEDR [7] $end
$var wire 1 [ ww_LEDR [6] $end
$var wire 1 \ ww_LEDR [5] $end
$var wire 1 ] ww_LEDR [4] $end
$var wire 1 ^ ww_LEDR [3] $end
$var wire 1 _ ww_LEDR [2] $end
$var wire 1 ` ww_LEDR [1] $end
$var wire 1 a ww_LEDR [0] $end
$var wire 1 b \CLOCK_50~input_o\ $end
$var wire 1 c \KEY[1]~input_o\ $end
$var wire 1 d \KEY[2]~input_o\ $end
$var wire 1 e \KEY[3]~input_o\ $end
$var wire 1 f \SW[4]~input_o\ $end
$var wire 1 g \SW[5]~input_o\ $end
$var wire 1 h \SW[0]~input_o\ $end
$var wire 1 i \SW[1]~input_o\ $end
$var wire 1 j \SW[2]~input_o\ $end
$var wire 1 k \SW[3]~input_o\ $end
$var wire 1 l \~QUARTUS_CREATED_GND~I_combout\ $end
$var wire 1 m \KEY[0]~input_o\ $end
$var wire 1 n \KEY[0]~inputCLKENA0_outclk\ $end
$var wire 1 o \PC|DOUT[0]~2_combout\ $end
$var wire 1 p \PC|DOUT[1]~0_combout\ $end
$var wire 1 q \PC|DOUT[1]~DUPLICATE_q\ $end
$var wire 1 r \PC|DOUT[2]~1_combout\ $end
$var wire 1 s \PC|DOUT[2]~DUPLICATE_q\ $end
$var wire 1 t \SW[6]~input_o\ $end
$var wire 1 u \ULA1|Add0~18_cout\ $end
$var wire 1 v \ULA1|Add0~1_sumout\ $end
$var wire 1 w \PC|DOUT[0]~DUPLICATE_q\ $end
$var wire 1 x \ROM1|memROM~1_combout\ $end
$var wire 1 y \ROM1|memROM~2_combout\ $end
$var wire 1 z \SW[7]~input_o\ $end
$var wire 1 { \ULA1|Add0~2\ $end
$var wire 1 | \ULA1|Add0~5_sumout\ $end
$var wire 1 } \SW[8]~input_o\ $end
$var wire 1 ~ \ULA1|Add0~6\ $end
$var wire 1 !! \ULA1|Add0~9_sumout\ $end
$var wire 1 "! \SW[9]~input_o\ $end
$var wire 1 #! \ULA1|Add0~10\ $end
$var wire 1 $! \ULA1|Add0~13_sumout\ $end
$var wire 1 %! \ROM1|memROM~0_combout\ $end
$var wire 1 &! \REGA|DOUT\ [3] $end
$var wire 1 '! \REGA|DOUT\ [2] $end
$var wire 1 (! \REGA|DOUT\ [1] $end
$var wire 1 )! \REGA|DOUT\ [0] $end
$var wire 1 *! \PC|DOUT\ [2] $end
$var wire 1 +! \PC|DOUT\ [1] $end
$var wire 1 ,! \PC|DOUT\ [0] $end
$var wire 1 -! \PC|ALT_INV_DOUT[2]~DUPLICATE_q\ $end
$var wire 1 .! \PC|ALT_INV_DOUT[1]~DUPLICATE_q\ $end
$var wire 1 /! \PC|ALT_INV_DOUT[0]~DUPLICATE_q\ $end
$var wire 1 0! \ALT_INV_SW[9]~input_o\ $end
$var wire 1 1! \ALT_INV_SW[8]~input_o\ $end
$var wire 1 2! \ALT_INV_SW[7]~input_o\ $end
$var wire 1 3! \ALT_INV_SW[6]~input_o\ $end
$var wire 1 4! \ROM1|ALT_INV_memROM~1_combout\ $end
$var wire 1 5! \ROM1|ALT_INV_memROM~0_combout\ $end
$var wire 1 6! \REGA|ALT_INV_DOUT\ [3] $end
$var wire 1 7! \REGA|ALT_INV_DOUT\ [2] $end
$var wire 1 8! \REGA|ALT_INV_DOUT\ [1] $end
$var wire 1 9! \REGA|ALT_INV_DOUT\ [0] $end
$var wire 1 :! \PC|ALT_INV_DOUT\ [2] $end
$var wire 1 ;! \PC|ALT_INV_DOUT\ [1] $end
$var wire 1 <! \PC|ALT_INV_DOUT\ [0] $end
$upscope $end
$upscope $end
$enddefinitions $end
#0
$dumpvars
x!
0=
1>
x?
1@
1A
1B
1C
1D
1E
xF
xb
xc
xd
xe
xf
xg
0h
0i
0j
0k
xl
0m
0n
1o
0p
0q
0r
0s
1t
1u
1v
0w
1x
0y
0z
0{
1|
0}
0~
1!!
0"!
0#!
1$!
1%!
1-!
1.!
1/!
10!
11!
12!
03!
04!
05!
x"
x#
x$
0%
03
04
05
16
x7
x8
09
0:
0;
0<
xG
xH
xI
0J
0K
0L
0M
1N
xO
xP
0Q
0R
0S
0T
0U
0V
0W
0X
0Y
1Z
0[
0\
0]
0^
0_
0`
0a
0&!
0'!
0(!
0)!
0*!
0+!
0,!
16!
17!
18!
19!
1:!
1;!
1<!
0&
0'
1(
0)
0*
0+
0,
0-
0.
0/
00
01
02
$end
#20000
1%
15
06
1<
1J
1T
0N
1M
1z
0t
1h
1m
1n
13!
02!
0|
0v
1{
1,!
1w
0/!
0<!
1|
0o
1p
0u
1v
0{
1y
0!!
0%!
0x
0|
1~
0$!
14!
15!
1W
1!!
1|
0~
0v
12
0!!
0Z
1Y
1X
1[
0(
1'
1&
1)
#40000
0%
16
1;
0J
1S
1N
1t
1i
0m
0n
03!
1v
#60000
1%
06
05
14
1J
0N
0M
1L
1}
0z
0t
1m
1n
13!
12!
01!
1!!
0|
0v
0,!
1+!
1q
0w
1)!
1(!
08!
09!
1/!
0.!
0;!
1<!
1o
1v
1|
1`
1a
1V
0W
1/
1.
02
11
#80000
0%
16
15
04
0;
0<
1:
0J
0T
0S
1R
1N
1M
0L
0}
1z
1t
1j
0i
0h
0m
0n
03!
02!
11!
0!!
0|
1~
0v
1{
1|
1!!
#100000
1%
1<
1J
1T
1h
1m
1n
1,!
1w
0)!
1'!
07!
19!
0/!
0<!
0o
0p
1r
1v
0{
0!!
1#!
1_
0a
1W
1$!
0|
0/
1-
12
#120000
0%
0<
1;
0J
0T
1S
1i
0h
0m
0n
#140000
1%
1<
1J
1T
1h
1m
1n
0,!
0+!
0q
1*!
1s
0w
1)!
0(!
0'!
1&!
06!
17!
18!
09!
1/!
0-!
0:!
1.!
1;!
1<!
1o
1u
1%!
0~
05!
1^
0_
0`
1a
1U
0V
0W
1!!
0#!
0v
1{
1/
0.
0-
1,
02
01
10
1|
0$!
0[
0)
#160000
0%
0<
0;
06
05
14
0:
19
0J
0T
0S
0R
1Q
0N
0M
1L
1}
0z
0t
1k
0j
0i
0h
0m
0n
13!
12!
01!
0!!
0|
1~
1v
1!!
#180000
1%
1<
1J
1T
1h
1m
1n
1,!
1w
1'!
0&!
16!
07!
0/!
0<!
0o
1p
0y
0!!
1#!
1$!
0^
1_
1W
0$!
1-
0,
12
0Y
0X
0'
0&
#200000
0%
0<
1;
16
15
04
13
0J
0T
1S
1N
1M
0L
1K
1"!
0}
1z
1t
1i
0h
0m
0n
03!
02!
11!
00!
1$!
1!!
1|
0~
0v
0!!
#220000
1%
1<
06
05
14
1J
1T
0N
0M
1L
1}
0z
0t
1h
1m
1n
13!
12!
01!
1!!
0#!
0|
1~
1v
0,!
1+!
1q
0w
1/!
0.!
0;!
1<!
0!!
1#!
0$!
1o
1$!
1V
0W
02
11
#240000
0%
0<
16
0;
1:
0J
0T
0S
1R
1N
1t
1j
0i
0h
0m
0n
03!
0v
#260000
1%
1<
06
15
1J
1T
0N
1M
1z
0t
1h
1m
1n
13!
02!
1|
0~
1v
1,!
1w
0/!
0<!
1!!
0#!
0o
0p
0r
0$!
1W
12
#280000
0%
0<
16
1;
0J
0T
1S
1N
1t
1i
0h
0m
0n
03!
0v
#300000
1%
1<
06
05
04
03
1J
1T
0N
0M
0L
0K
0"!
0}
0z
0t
1h
1m
1n
13!
12!
11!
10!
1$!
0!!
1#!
0|
1~
1v
0,!
0+!
0q
0*!
0s
0w
1/!
1-!
1:!
1.!
1;!
1<!
1!!
0$!
1o
1x
04!
0U
0V
0W
0)!
0'!
02
01
00
17!
19!
1Z
0v
0!!
1(
0_
0a
0/
0-
#320000
0%
0<
16
0;
0:
09
0J
0T
0S
0R
0Q
1N
1t
0k
0j
0i
0h
0m
0n
03!
1v
0{
1|
0~
1!!
0#!
1$!
#340000
1%
1<
06
15
1J
1T
0N
1M
1z
0t
1h
1m
1n
13!
02!
0|
0v
1{
1,!
1w
0/!
0<!
1|
0o
1p
0u
1v
0{
1y
0!!
0%!
0x
0|
1~
0$!
14!
15!
1W
1!!
1|
0~
0v
12
0!!
0Z
1Y
1X
1[
0(
1'
1&
1)
#360000
0%
0<
16
1;
0J
0T
1S
1N
1t
1i
0h
0m
0n
03!
1v
#380000
1%
1<
06
05
14
1J
1T
0N
0M
1L
1}
0z
0t
1h
1m
1n
13!
12!
01!
1!!
0|
0v
0,!
1+!
1q
0w
1)!
1(!
08!
09!
1/!
0.!
0;!
1<!
1o
1v
1|
1`
1a
1V
0W
1/
1.
02
11
#400000
0%
0<
16
0;
1:
0J
0T
0S
1R
1N
1t
1j
0i
0h
0m
0n
03!
0v
1{
0|
1~
0!!
1#!
1$!
#420000
1%
1<
06
15
1J
1T
0N
1M
1z
0t
1h
1m
1n
13!
02!
1|
1v
0{
1,!
1w
0)!
0(!
1&!
06!
18!
19!
0/!
0<!
0|
0o
0p
1r
0v
1|
0~
0$!
1^
0`
0a
1W
1!!
0#!
0/
0.
1,
12
1$!
#440000
0%
0<
16
1;
0J
0T
1S
1N
1t
1i
0h
0m
0n
03!
1v
#460000
1%
1<
06
05
04
13
1J
1T
0N
0M
0L
1K
1"!
0}
0z
0t
1h
1m
1n
13!
12!
11!
00!
0$!
0!!
0|
0v
0,!
0+!
0q
1*!
1s
0w
1)!
1(!
1'!
07!
08!
09!
1/!
0-!
0:!
1.!
1;!
1<!
1o
1u
1%!
1$!
1{
1~
1#!
05!
1_
1`
1a
1U
0V
0W
0$!
1!!
1|
1v
1/
1.
1-
02
01
10
0[
0)
#480000
0%
0<
16
0;
0:
19
0J
0T
0S
0R
1Q
1N
1t
1k
0j
0i
0h
0m
0n
03!
0v
#500000
1%
1<
06
15
1J
1T
0N
1M
1z
0t
1h
1m
1n
13!
02!
0|
1v
1,!
1w
0)!
0&!
16!
19!
0/!
0<!
0o
1p
0y
0v
1$!
0^
0a
1W
0/
0,
12
0Y
0X
0'
0&
#520000
0%
0<
16
1;
0J
0T
1S
1N
1t
1i
0h
0m
0n
03!
1v
0{
1|
0~
0!!
#540000
1%
1<
06
05
14
1J
1T
0N
0M
1L
1}
0z
0t
1h
1m
1n
13!
12!
01!
1!!
0#!
0|
1~
0v
1{
0,!
1+!
1q
0w
1/!
0.!
0;!
1<!
1|
0!!
1#!
0$!
1o
1$!
1V
0W
02
11
#560000
0%
0<
16
0;
1:
0J
0T
0S
1R
1N
1t
1j
0i
0h
0m
0n
03!
1v
0{
0|
#580000
1%
1<
06
15
1J
1T
0N
1M
1z
0t
1h
1m
1n
13!
02!
1|
0~
0v
1{
1,!
1w
0/!
0<!
0|
1~
1!!
0#!
0o
0p
0r
0$!
0!!
1#!
1W
1$!
12
#600000
0%
0<
16
1;
0J
0T
1S
1N
1t
1i
0h
0m
0n
03!
1v
0{
1|
0~
1!!
0#!
0$!
#620000
1%
1<
06
05
04
03
1J
1T
0N
0M
0L
0K
0"!
0}
0z
0t
1h
1m
1n
13!
12!
11!
10!
1$!
0!!
1#!
0|
1~
0v
1{
0,!
0+!
0q
0*!
0s
0w
1/!
1-!
1:!
1.!
1;!
1<!
1|
1!!
0$!
1o
1x
04!
0U
0V
0W
0(!
0'!
02
01
00
17!
18!
1Z
0|
0!!
1(
0_
0`
0.
0-
#640000
0%
0<
16
0;
0:
09
0J
0T
0S
0R
0Q
1N
1t
0k
0j
0i
0h
0m
0n
03!
1v
0{
1|
0~
1!!
0#!
1$!
#660000
1%
1<
06
15
1J
1T
0N
1M
1z
0t
1h
1m
1n
13!
02!
0|
0v
1{
1,!
1w
0/!
0<!
1|
0o
1p
0u
1v
0{
1y
0!!
0%!
0x
0|
1~
0$!
14!
15!
1W
1!!
1|
0~
0v
12
0!!
0Z
1Y
1X
1[
0(
1'
1&
1)
#680000
0%
0<
16
1;
0J
0T
1S
1N
1t
1i
0h
0m
0n
03!
1v
#700000
1%
1<
06
05
14
1J
1T
0N
0M
1L
1}
0z
0t
1h
1m
1n
13!
12!
01!
1!!
0|
0v
0,!
1+!
1q
0w
1)!
1(!
08!
09!
1/!
0.!
0;!
1<!
1o
1v
1|
1`
1a
1V
0W
1/
1.
02
11
#720000
0%
0<
16
0;
1:
0J
0T
0S
1R
1N
1t
1j
0i
0h
0m
0n
03!
0v
1{
0|
1~
0!!
1#!
1$!
#740000
1%
1<
06
15
1J
1T
0N
1M
1z
0t
1h
1m
1n
13!
02!
1|
1v
0{
1,!
1w
0)!
0(!
1&!
06!
18!
19!
0/!
0<!
0|
0o
0p
1r
0v
1|
0~
0$!
1^
0`
0a
1W
1!!
0#!
0/
0.
1,
12
1$!
#760000
0%
0<
16
1;
0J
0T
1S
1N
1t
1i
0h
0m
0n
03!
1v
#780000
1%
1<
06
05
04
13
1J
1T
0N
0M
0L
1K
1"!
0}
0z
0t
1h
1m
1n
13!
12!
11!
00!
0$!
0!!
0|
0v
0,!
0+!
0q
1*!
1s
0w
1)!
1(!
1'!
07!
08!
09!
1/!
0-!
0:!
1.!
1;!
1<!
1o
1u
1%!
1$!
1{
1~
1#!
05!
1_
1`
1a
1U
0V
0W
0$!
1!!
1|
1v
1/
1.
1-
02
01
10
0[
0)
#800000
0%
0<
16
0;
0:
19
0J
0T
0S
0R
1Q
1N
1t
1k
0j
0i
0h
0m
0n
03!
0v
#820000
1%
1<
06
15
1J
1T
0N
1M
1z
0t
1h
1m
1n
13!
02!
0|
1v
1,!
1w
0)!
0&!
16!
19!
0/!
0<!
0o
1p
0y
0v
1$!
0^
0a
1W
0/
0,
12
0Y
0X
0'
0&
#840000
0%
0<
16
1;
0J
0T
1S
1N
1t
1i
0h
0m
0n
03!
1v
0{
1|
0~
0!!
#860000
1%
1<
06
05
14
1J
1T
0N
0M
1L
1}
0z
0t
1h
1m
1n
13!
12!
01!
1!!
0#!
0|
1~
0v
1{
0,!
1+!
1q
0w
1/!
0.!
0;!
1<!
1|
0!!
1#!
0$!
1o
1$!
1V
0W
02
11
#880000
0%
0<
16
0;
1:
0J
0T
0S
1R
1N
1t
1j
0i
0h
0m
0n
03!
1v
0{
0|
#900000
1%
1<
06
15
1J
1T
0N
1M
1z
0t
1h
1m
1n
13!
02!
1|
0~
0v
1{
1,!
1w
0/!
0<!
0|
1~
1!!
0#!
0o
0p
0r
0$!
0!!
1#!
1W
1$!
12
#920000
0%
0<
16
1;
0J
0T
1S
1N
1t
1i
0h
0m
0n
03!
1v
0{
1|
0~
1!!
0#!
0$!
#940000
1%
1<
06
05
04
03
1J
1T
0N
0M
0L
0K
0"!
0}
0z
0t
1h
1m
1n
13!
12!
11!
10!
1$!
0!!
1#!
0|
1~
0v
1{
0,!
0+!
0q
0*!
0s
0w
1/!
1-!
1:!
1.!
1;!
1<!
1|
1!!
0$!
1o
1x
04!
0U
0V
0W
0(!
0'!
02
01
00
17!
18!
1Z
0|
0!!
1(
0_
0`
0.
0-
#960000
0%
0<
16
0;
0:
09
0J
0T
0S
0R
0Q
1N
1t
0k
0j
0i
0h
0m
0n
03!
1v
0{
1|
0~
1!!
0#!
1$!
#980000
1%
1<
06
15
1J
1T
0N
1M
1z
0t
1h
1m
1n
13!
02!
0|
0v
1{
1,!
1w
0/!
0<!
1|
0o
1p
0u
1v
0{
1y
0!!
0%!
0x
0|
1~
0$!
14!
15!
1W
1!!
1|
0~
0v
12
0!!
0Z
1Y
1X
1[
0(
1'
1&
1)
