QuatusProjects/aula2/simulation/qsim/Aula2-1.msim.vcd
$comment
	File created using the following command:
		vcd file Aula2-1.msim.vcd -direction
$end
$date
	Tue Aug 23 15:42:17 2022
$end
$version
	ModelSim Version 2020.1
$end
$timescale
	1ps
$end

$scope module aula2_1_vhd_vec_tst $end
$var wire 1 ! Dado [7] $end
$var wire 1 " Dado [6] $end
$var wire 1 # Dado [5] $end
$var wire 1 $ Dado [4] $end
$var wire 1 % Dado [3] $end
$var wire 1 & Dado [2] $end
$var wire 1 ' Dado [1] $end
$var wire 1 ( Dado [0] $end
$var wire 1 ) Endereco [9] $end
$var wire 1 * Endereco [8] $end
$var wire 1 + Endereco [7] $end
$var wire 1 , Endereco [6] $end
$var wire 1 - Endereco [5] $end
$var wire 1 . Endereco [4] $end
$var wire 1 / Endereco [3] $end
$var wire 1 0 Endereco [2] $end
$var wire 1 1 Endereco [1] $end
$var wire 1 2 Endereco [0] $end

$scope module i1 $end
$var wire 1 3 gnd $end
$var wire 1 4 vcc $end
$var wire 1 5 unknown $end
$var wire 1 6 devoe $end
$var wire 1 7 devclrn $end
$var wire 1 8 devpor $end
$var wire 1 9 ww_devoe $end
$var wire 1 : ww_devclrn $end
$var wire 1 ; ww_devpor $end
$var wire 1 < ww_Endereco [9] $end
$var wire 1 = ww_Endereco [8] $end
$var wire 1 > ww_Endereco [7] $end
$var wire 1 ? ww_Endereco [6] $end
$var wire 1 @ ww_Endereco [5] $end
$var wire 1 A ww_Endereco [4] $end
$var wire 1 B ww_Endereco [3] $end
$var wire 1 C ww_Endereco [2] $end
$var wire 1 D ww_Endereco [1] $end
$var wire 1 E ww_Endereco [0] $end
$var wire 1 F ww_Dado [7] $end
$var wire 1 G ww_Dado [6] $end
$var wire 1 H ww_Dado [5] $end
$var wire 1 I ww_Dado [4] $end
$var wire 1 J ww_Dado [3] $end
$var wire 1 K ww_Dado [2] $end
$var wire 1 L ww_Dado [1] $end
$var wire 1 M ww_Dado [0] $end
$var wire 1 N \Dado[0]~output_o\ $end
$var wire 1 O \Dado[1]~output_o\ $end
$var wire 1 P \Dado[2]~output_o\ $end
$var wire 1 Q \Dado[3]~output_o\ $end
$var wire 1 R \Dado[4]~output_o\ $end
$var wire 1 S \Dado[5]~output_o\ $end
$var wire 1 T \Dado[6]~output_o\ $end
$var wire 1 U \Dado[7]~output_o\ $end
$var wire 1 V \Endereco[3]~input_o\ $end
$var wire 1 W \Endereco[2]~input_o\ $end
$var wire 1 X \Endereco[1]~input_o\ $end
$var wire 1 Y \Endereco[0]~input_o\ $end
$var wire 1 Z \Endereco[4]~input_o\ $end
$var wire 1 [ \Endereco[5]~input_o\ $end
$var wire 1 \ \Endereco[6]~input_o\ $end
$var wire 1 ] \Endereco[7]~input_o\ $end
$var wire 1 ^ \Endereco[8]~input_o\ $end
$var wire 1 _ \Endereco[9]~input_o\ $end
$var wire 1 ` \memROM~0_combout\ $end
$var wire 1 a \memROM~7_combout\ $end
$var wire 1 b \memROM~6_combout\ $end
$var wire 1 c \memROM~5_combout\ $end
$var wire 1 d \memROM~1_combout\ $end
$var wire 1 e \memROM~4_combout\ $end
$var wire 1 f \memROM~3_combout\ $end
$var wire 1 g \memROM~2_combout\ $end
$var wire 1 h \ALT_INV_Endereco[9]~input_o\ $end
$var wire 1 i \ALT_INV_Endereco[8]~input_o\ $end
$var wire 1 j \ALT_INV_memROM~0_combout\ $end
$var wire 1 k \ALT_INV_Endereco[7]~input_o\ $end
$var wire 1 l \ALT_INV_Endereco[2]~input_o\ $end
$var wire 1 m \ALT_INV_Endereco[1]~input_o\ $end
$var wire 1 n \ALT_INV_Endereco[0]~input_o\ $end
$var wire 1 o \ALT_INV_Endereco[5]~input_o\ $end
$var wire 1 p \ALT_INV_Endereco[4]~input_o\ $end
$var wire 1 q \ALT_INV_Endereco[6]~input_o\ $end
$var wire 1 r \ALT_INV_Endereco[3]~input_o\ $end
$upscope $end
$upscope $end
$enddefinitions $end
#0
$dumpvars
03
14
x5
16
17
18
19
1:
1;
0N
1O
0P
0Q
0R
0S
1T
0U
0V
0W
0X
0Y
0Z
0[
0\
0]
0^
0_
1`
0a
1b
0c
0d
0e
0f
1g
1h
1i
0j
1k
1l
1m
1n
1o
1p
1q
1r
0)
0*
0+
0,
0-
0.
0/
00
01
02
0!
1"
0#
0$
0%
0&
1'
0(
0<
0=
0>
0?
0@
0A
0B
0C
0D
0E
0F
1G
0H
0I
0J
0K
1L
0M
$end
#10000
12
1E
1Y
0n
1a
0b
1c
1f
1S
1P
0O
1N
1H
1K
0L
1M
1(
0'
1&
1#
#20000
02
11
0E
1D
1X
0Y
1n
0m
0a
1b
0c
1e
1R
0P
1O
0N
1I
0K
1L
0M
0(
1'
0&
1$
#30000
12
1E
1Y
0n
1c
1d
0e
0R
1Q
1P
0I
1J
1K
1&
1%
0$
#40000
02
01
10
0E
0D
1C
1W
0X
0Y
1n
1m
0l
1a
0b
0c
0d
0Q
0P
0O
1N
0J
0K
0L
1M
1(
0'
0&
0%
#50000
12
1E
1Y
0n
0a
1b
1e
1R
1O
0N
1I
1L
0M
0(
1'
1$
#60000
02
11
0E
1D
1X
0Y
1n
0m
0b
1c
0e
0R
1P
0O
0I
1K
0L
0'
1&
0$
#70000
12
1E
1Y
0n
1a
1b
1d
1Q
1O
1N
1J
1L
1M
1(
1'
1%
#80000
02
01
00
1/
0E
0D
0C
1B
1V
0W
0X
0Y
1n
1m
1l
0r
0g
0a
0b
0c
0d
0f
0S
0Q
0P
0O
0N
0T
0H
0J
0K
0L
0M
0G
0(
0'
0&
0%
0#
0"
#90000
12
1E
1Y
0n
#100000
02
11
0E
1D
1X
0Y
1n
0m
#110000
12
1E
1Y
0n
#120000
02
01
10
0E
0D
1C
1W
0X
0Y
1n
1m
0l
#130000
12
1E
1Y
0n
#140000
02
11
0E
1D
1X
0Y
1n
0m
#150000
12
1E
1Y
0n
#160000
02
01
00
0/
1.
0E
0D
0C
0B
1A
1Z
0V
0W
0X
0Y
1n
1m
1l
1r
0p
0`
1g
1b
1j
0b
0g
1O
1T
1L
1G
1'
1"
0T
0O
0G
0L
0'
0"
#170000
12
1E
1Y
0n
#180000
02
11
0E
1D
1X
0Y
1n
0m
#190000
12
1E
1Y
0n
#200000
02
01
10
0E
0D
1C
1W
0X
0Y
1n
1m
0l
#210000
12
1E
1Y
0n
#220000
02
11
0E
1D
1X
0Y
1n
0m
#230000
12
1E
1Y
0n
#240000
02
01
00
1/
0E
0D
0C
1B
1V
0W
0X
0Y
1n
1m
1l
0r
#250000
12
1E
1Y
0n
#260000
02
11
0E
1D
1X
0Y
1n
0m
#270000
12
1E
1Y
0n
#280000
02
01
10
0E
0D
1C
1W
0X
0Y
1n
1m
0l
#290000
12
1E
1Y
0n
#300000
02
11
0E
1D
1X
0Y
1n
0m
#310000
12
1E
1Y
0n
#320000
02
01
00
0/
0.
1-
0E
0D
0C
0B
0A
1@
1[
0Z
0V
0W
0X
0Y
1n
1m
1l
1r
1p
0o
#330000
12
1E
1Y
0n
#340000
02
11
0E
1D
1X
0Y
1n
0m
#350000
12
1E
1Y
0n
#360000
02
01
10
0E
0D
1C
1W
0X
0Y
1n
1m
0l
#370000
12
1E
1Y
0n
#380000
02
11
0E
1D
1X
0Y
1n
0m
#390000
12
1E
1Y
0n
#400000
02
01
00
1/
0E
0D
0C
1B
1V
0W
0X
0Y
1n
1m
1l
0r
#410000
12
1E
1Y
0n
#420000
02
11
0E
1D
1X
0Y
1n
0m
#430000
12
1E
1Y
0n
#440000
02
01
10
0E
0D
1C
1W
0X
0Y
1n
1m
0l
#450000
12
1E
1Y
0n
#460000
02
11
0E
1D
1X
0Y
1n
0m
#470000
12
1E
1Y
0n
#480000
02
01
00
0/
1.
0E
0D
0C
0B
1A
1Z
0V
0W
0X
0Y
1n
1m
1l
1r
0p
#490000
12
1E
1Y
0n
#500000
02
11
0E
1D
1X
0Y
1n
0m
#510000
12
1E
1Y
0n
#520000
02
01
10
0E
0D
1C
1W
0X
0Y
1n
1m
0l
#530000
12
1E
1Y
0n
#540000
02
11
0E
1D
1X
0Y
1n
0m
#550000
12
1E
1Y
0n
#560000
02
01
00
1/
0E
0D
0C
1B
1V
0W
0X
0Y
1n
1m
1l
0r
#570000
12
1E
1Y
0n
#580000
02
11
0E
1D
1X
0Y
1n
0m
#590000
12
1E
1Y
0n
#600000
02
01
10
0E
0D
1C
1W
0X
0Y
1n
1m
0l
#610000
12
1E
1Y
0n
#620000
02
11
0E
1D
1X
0Y
1n
0m
#630000
12
1E
1Y
0n
#640000
02
01
00
0/
0.
0-
1,
0E
0D
0C
0B
0A
0@
1?
1\
0[
0Z
0V
0W
0X
0Y
1n
1m
1l
1r
1p
1o
0q
#650000
12
1E
1Y
0n
#660000
02
11
0E
1D
1X
0Y
1n
0m
#670000
12
1E
1Y
0n
#680000
02
01
10
0E
0D
1C
1W
0X
0Y
1n
1m
0l
#690000
12
1E
1Y
0n
#700000
02
11
0E
1D
1X
0Y
1n
0m
#710000
12
1E
1Y
0n
#720000
02
01
00
1/
0E
0D
0C
1B
1V
0W
0X
0Y
1n
1m
1l
0r
#730000
12
1E
1Y
0n
#740000
02
11
0E
1D
1X
0Y
1n
0m
#750000
12
1E
1Y
0n
#760000
02
01
10
0E
0D
1C
1W
0X
0Y
1n
1m
0l
#770000
12
1E
1Y
0n
#780000
02
11
0E
1D
1X
0Y
1n
0m
#790000
12
1E
1Y
0n
#800000
02
01
00
0/
1.
0E
0D
0C
0B
1A
1Z
0V
0W
0X
0Y
1n
1m
1l
1r
0p
#810000
12
1E
1Y
0n
#820000
02
11
0E
1D
1X
0Y
1n
0m
#830000
12
1E
1Y
0n
#840000
02
01
10
0E
0D
1C
1W
0X
0Y
1n
1m
0l
#850000
12
1E
1Y
0n
#860000
02
11
0E
1D
1X
0Y
1n
0m
#870000
12
1E
1Y
0n
#880000
02
01
00
1/
0E
0D
0C
1B
1V
0W
0X
0Y
1n
1m
1l
0r
#890000
12
1E
1Y
0n
#900000
02
11
0E
1D
1X
0Y
1n
0m
#910000
12
1E
1Y
0n
#920000
02
01
10
0E
0D
1C
1W
0X
0Y
1n
1m
0l
#930000
12
1E
1Y
0n
#940000
02
11
0E
1D
1X
0Y
1n
0m
#950000
12
1E
1Y
0n
#960000
02
01
00
0/
0.
1-
0E
0D
0C
0B
0A
1@
1[
0Z
0V
0W
0X
0Y
1n
1m
1l
1r
1p
0o
#970000
12
1E
1Y
0n
#980000
02
11
0E
1D
1X
0Y
1n
0m
#990000
12
1E
1Y
0n
