QuatusProjects/aula4Atv1/simulation/qsim/Aula4Atv1.msim.vcd
$comment
	File created using the following command:
		vcd file Aula4Atv1.msim.vcd -direction
$end
$date
	Thu Sep  1 15:34:32 2022
$end
$version
	ModelSim Version 2020.1
$end
$timescale
	1ps
$end

$scope module aula4atv1_vhd_vec_tst $end
$var wire 1 ! CLOCK_50 $end
$var wire 1 " KEY [3] $end
$var wire 1 # KEY [2] $end
$var wire 1 $ KEY [1] $end
$var wire 1 % KEY [0] $end
$var wire 1 & LEDR [9] $end
$var wire 1 ' LEDR [8] $end
$var wire 1 ( LEDR [7] $end
$var wire 1 ) LEDR [6] $end
$var wire 1 * LEDR [5] $end
$var wire 1 + LEDR [4] $end
$var wire 1 , LEDR [3] $end
$var wire 1 - LEDR [2] $end
$var wire 1 . LEDR [1] $end
$var wire 1 / LEDR [0] $end
$var wire 1 0 PC_OUT [8] $end
$var wire 1 1 PC_OUT [7] $end
$var wire 1 2 PC_OUT [6] $end
$var wire 1 3 PC_OUT [5] $end
$var wire 1 4 PC_OUT [4] $end
$var wire 1 5 PC_OUT [3] $end
$var wire 1 6 PC_OUT [2] $end
$var wire 1 7 PC_OUT [1] $end
$var wire 1 8 PC_OUT [0] $end

$scope module i1 $end
$var wire 1 9 gnd $end
$var wire 1 : vcc $end
$var wire 1 ; unknown $end
$var wire 1 < devoe $end
$var wire 1 = devclrn $end
$var wire 1 > devpor $end
$var wire 1 ? ww_devoe $end
$var wire 1 @ ww_devclrn $end
$var wire 1 A ww_devpor $end
$var wire 1 B ww_CLOCK_50 $end
$var wire 1 C ww_KEY [3] $end
$var wire 1 D ww_KEY [2] $end
$var wire 1 E ww_KEY [1] $end
$var wire 1 F ww_KEY [0] $end
$var wire 1 G ww_PC_OUT [8] $end
$var wire 1 H ww_PC_OUT [7] $end
$var wire 1 I ww_PC_OUT [6] $end
$var wire 1 J ww_PC_OUT [5] $end
$var wire 1 K ww_PC_OUT [4] $end
$var wire 1 L ww_PC_OUT [3] $end
$var wire 1 M ww_PC_OUT [2] $end
$var wire 1 N ww_PC_OUT [1] $end
$var wire 1 O ww_PC_OUT [0] $end
$var wire 1 P ww_LEDR [9] $end
$var wire 1 Q ww_LEDR [8] $end
$var wire 1 R ww_LEDR [7] $end
$var wire 1 S ww_LEDR [6] $end
$var wire 1 T ww_LEDR [5] $end
$var wire 1 U ww_LEDR [4] $end
$var wire 1 V ww_LEDR [3] $end
$var wire 1 W ww_LEDR [2] $end
$var wire 1 X ww_LEDR [1] $end
$var wire 1 Y ww_LEDR [0] $end
$var wire 1 Z \CLOCK_50~input_o\ $end
$var wire 1 [ \KEY[1]~input_o\ $end
$var wire 1 \ \KEY[2]~input_o\ $end
$var wire 1 ] \KEY[3]~input_o\ $end
$var wire 1 ^ \~QUARTUS_CREATED_GND~I_combout\ $end
$var wire 1 _ \KEY[0]~input_o\ $end
$var wire 1 ` \KEY[0]~inputCLKENA0_outclk\ $end
$var wire 1 a \PC|DOUT[0]~0_combout\ $end
$var wire 1 b \PC|DOUT[0]~DUPLICATE_q\ $end
$var wire 1 c \incrementaPC|Add0~1_sumout\ $end
$var wire 1 d \PC|DOUT[1]~DUPLICATE_q\ $end
$var wire 1 e \incrementaPC|Add0~2\ $end
$var wire 1 f \incrementaPC|Add0~5_sumout\ $end
$var wire 1 g \incrementaPC|Add0~6\ $end
$var wire 1 h \incrementaPC|Add0~9_sumout\ $end
$var wire 1 i \incrementaPC|Add0~10\ $end
$var wire 1 j \incrementaPC|Add0~13_sumout\ $end
$var wire 1 k \PC|DOUT[4]~DUPLICATE_q\ $end
$var wire 1 l \incrementaPC|Add0~14\ $end
$var wire 1 m \incrementaPC|Add0~17_sumout\ $end
$var wire 1 n \PC|DOUT[5]~DUPLICATE_q\ $end
$var wire 1 o \incrementaPC|Add0~18\ $end
$var wire 1 p \incrementaPC|Add0~21_sumout\ $end
$var wire 1 q \PC|DOUT[6]~DUPLICATE_q\ $end
$var wire 1 r \incrementaPC|Add0~22\ $end
$var wire 1 s \incrementaPC|Add0~25_sumout\ $end
$var wire 1 t \PC|DOUT[7]~DUPLICATE_q\ $end
$var wire 1 u \incrementaPC|Add0~26\ $end
$var wire 1 v \incrementaPC|Add0~29_sumout\ $end
$var wire 1 w \PC|DOUT[2]~DUPLICATE_q\ $end
$var wire 1 x \ROM1|memROM~3_combout\ $end
$var wire 1 y \ROM1|memROM~1_combout\ $end
$var wire 1 z \ROM1|memROM~0_combout\ $end
$var wire 1 { \ROM1|memROM~2_combout\ $end
$var wire 1 | \DEC1|Equal5~0_combout\ $end
$var wire 1 } \DEC1|saida[5]~1_combout\ $end
$var wire 1 ~ \ROM1|memROM~8_combout\ $end
$var wire 1 !! \ROM1|memROM~4_combout\ $end
$var wire 1 "! \RAM1|ram~98_combout\ $end
$var wire 1 #! \RAM1|ram~90_combout\ $end
$var wire 1 $! \RAM1|ram~25_q\ $end
$var wire 1 %! \ROM1|memROM~6_combout\ $end
$var wire 1 &! \RAM1|ram~89_combout\ $end
$var wire 1 '! \RAM1|ram~17_q\ $end
$var wire 1 (! \ROM1|memROM~5_combout\ $end
$var wire 1 )! \RAM1|ram~88_combout\ $end
$var wire 1 *! \ULA1|Add0~34_cout\ $end
$var wire 1 +! \ULA1|Add0~1_sumout\ $end
$var wire 1 ,! \RAM1|ram~81_combout\ $end
$var wire 1 -! \MUX1|saida_MUX[0]~0_combout\ $end
$var wire 1 .! \ULA1|saida[0]~0_combout\ $end
$var wire 1 /! \DEC1|saida[4]~0_combout\ $end
$var wire 1 0! \ROM1|memROM~7_combout\ $end
$var wire 1 1! \RAM1|ram~18_q\ $end
$var wire 1 2! \RAM1|ram~26_q\ $end
$var wire 1 3! \RAM1|ram~91_combout\ $end
$var wire 1 4! \ULA1|Add0~2\ $end
$var wire 1 5! \ULA1|Add0~5_sumout\ $end
$var wire 1 6! \MUX1|saida_MUX[1]~1_combout\ $end
$var wire 1 7! \RAM1|ram~27feeder_combout\ $end
$var wire 1 8! \RAM1|ram~27_q\ $end
$var wire 1 9! \RAM1|ram~19_q\ $end
$var wire 1 :! \RAM1|ram~82_combout\ $end
$var wire 1 ;! \MUX1|saida_MUX[2]~2_combout\ $end
$var wire 1 <! \RAM1|ram~92_combout\ $end
$var wire 1 =! \ULA1|Add0~6\ $end
$var wire 1 >! \ULA1|Add0~9_sumout\ $end
$var wire 1 ?! \REGA|DOUT[2]~DUPLICATE_q\ $end
$var wire 1 @! \DEC1|saida[4]~2_combout\ $end
$var wire 1 A! \RAM1|ram~20_q\ $end
$var wire 1 B! \RAM1|ram~28_q\ $end
$var wire 1 C! \RAM1|ram~83_combout\ $end
$var wire 1 D! \RAM1|ram~93_combout\ $end
$var wire 1 E! \ULA1|Add0~10\ $end
$var wire 1 F! \ULA1|Add0~13_sumout\ $end
$var wire 1 G! \MUX1|saida_MUX[3]~3_combout\ $end
$var wire 1 H! \RAM1|ram~21_q\ $end
$var wire 1 I! \RAM1|ram~29_q\ $end
$var wire 1 J! \RAM1|ram~84_combout\ $end
$var wire 1 K! \RAM1|ram~94_combout\ $end
$var wire 1 L! \ULA1|Add0~14\ $end
$var wire 1 M! \ULA1|Add0~17_sumout\ $end
$var wire 1 N! \MUX1|saida_MUX[4]~4_combout\ $end
$var wire 1 O! \RAM1|ram~30_q\ $end
$var wire 1 P! \RAM1|ram~22_q\ $end
$var wire 1 Q! \RAM1|ram~85_combout\ $end
$var wire 1 R! \RAM1|ram~95_combout\ $end
$var wire 1 S! \ULA1|Add0~18\ $end
$var wire 1 T! \ULA1|Add0~21_sumout\ $end
$var wire 1 U! \MUX1|saida_MUX[5]~5_combout\ $end
$var wire 1 V! \RAM1|ram~23feeder_combout\ $end
$var wire 1 W! \RAM1|ram~23_q\ $end
$var wire 1 X! \RAM1|ram~31feeder_combout\ $end
$var wire 1 Y! \RAM1|ram~31_q\ $end
$var wire 1 Z! \RAM1|ram~86_combout\ $end
$var wire 1 [! \RAM1|ram~96_combout\ $end
$var wire 1 \! \ULA1|Add0~22\ $end
$var wire 1 ]! \ULA1|Add0~25_sumout\ $end
$var wire 1 ^! \MUX1|saida_MUX[6]~6_combout\ $end
$var wire 1 _! \RAM1|ram~24_q\ $end
$var wire 1 `! \RAM1|ram~32_q\ $end
$var wire 1 a! \RAM1|ram~87_combout\ $end
$var wire 1 b! \RAM1|ram~97_combout\ $end
$var wire 1 c! \ULA1|Add0~26\ $end
$var wire 1 d! \ULA1|Add0~29_sumout\ $end
$var wire 1 e! \MUX1|saida_MUX[7]~7_combout\ $end
$var wire 1 f! \PC|DOUT\ [8] $end
$var wire 1 g! \PC|DOUT\ [7] $end
$var wire 1 h! \PC|DOUT\ [6] $end
$var wire 1 i! \PC|DOUT\ [5] $end
$var wire 1 j! \PC|DOUT\ [4] $end
$var wire 1 k! \PC|DOUT\ [3] $end
$var wire 1 l! \PC|DOUT\ [2] $end
$var wire 1 m! \PC|DOUT\ [1] $end
$var wire 1 n! \PC|DOUT\ [0] $end
$var wire 1 o! \REGA|DOUT\ [7] $end
$var wire 1 p! \REGA|DOUT\ [6] $end
$var wire 1 q! \REGA|DOUT\ [5] $end
$var wire 1 r! \REGA|DOUT\ [4] $end
$var wire 1 s! \REGA|DOUT\ [3] $end
$var wire 1 t! \REGA|DOUT\ [2] $end
$var wire 1 u! \REGA|DOUT\ [1] $end
$var wire 1 v! \REGA|DOUT\ [0] $end
$var wire 1 w! \PC|ALT_INV_DOUT[6]~DUPLICATE_q\ $end
$var wire 1 x! \PC|ALT_INV_DOUT[2]~DUPLICATE_q\ $end
$var wire 1 y! \PC|ALT_INV_DOUT[1]~DUPLICATE_q\ $end
$var wire 1 z! \PC|ALT_INV_DOUT[0]~DUPLICATE_q\ $end
$var wire 1 {! \RAM1|ALT_INV_ram~98_combout\ $end
$var wire 1 |! \ROM1|ALT_INV_memROM~8_combout\ $end
$var wire 1 }! \RAM1|ALT_INV_ram~97_combout\ $end
$var wire 1 ~! \RAM1|ALT_INV_ram~96_combout\ $end
$var wire 1 !" \RAM1|ALT_INV_ram~95_combout\ $end
$var wire 1 "" \RAM1|ALT_INV_ram~94_combout\ $end
$var wire 1 #" \RAM1|ALT_INV_ram~93_combout\ $end
$var wire 1 $" \DEC1|ALT_INV_saida[4]~2_combout\ $end
$var wire 1 %" \RAM1|ALT_INV_ram~92_combout\ $end
$var wire 1 &" \RAM1|ALT_INV_ram~91_combout\ $end
$var wire 1 '" \ROM1|ALT_INV_memROM~7_combout\ $end
$var wire 1 (" \RAM1|ALT_INV_ram~88_combout\ $end
$var wire 1 )" \DEC1|ALT_INV_Equal5~0_combout\ $end
$var wire 1 *" \RAM1|ALT_INV_ram~87_combout\ $end
$var wire 1 +" \RAM1|ALT_INV_ram~32_q\ $end
$var wire 1 ," \RAM1|ALT_INV_ram~24_q\ $end
$var wire 1 -" \RAM1|ALT_INV_ram~86_combout\ $end
$var wire 1 ." \RAM1|ALT_INV_ram~31_q\ $end
$var wire 1 /" \RAM1|ALT_INV_ram~23_q\ $end
$var wire 1 0" \RAM1|ALT_INV_ram~85_combout\ $end
$var wire 1 1" \RAM1|ALT_INV_ram~30_q\ $end
$var wire 1 2" \RAM1|ALT_INV_ram~22_q\ $end
$var wire 1 3" \RAM1|ALT_INV_ram~84_combout\ $end
$var wire 1 4" \RAM1|ALT_INV_ram~29_q\ $end
$var wire 1 5" \RAM1|ALT_INV_ram~21_q\ $end
$var wire 1 6" \RAM1|ALT_INV_ram~83_combout\ $end
$var wire 1 7" \RAM1|ALT_INV_ram~28_q\ $end
$var wire 1 8" \RAM1|ALT_INV_ram~20_q\ $end
$var wire 1 9" \RAM1|ALT_INV_ram~82_combout\ $end
$var wire 1 :" \RAM1|ALT_INV_ram~27_q\ $end
$var wire 1 ;" \RAM1|ALT_INV_ram~19_q\ $end
$var wire 1 <" \RAM1|ALT_INV_ram~26_q\ $end
$var wire 1 =" \RAM1|ALT_INV_ram~18_q\ $end
$var wire 1 >" \RAM1|ALT_INV_ram~81_combout\ $end
$var wire 1 ?" \RAM1|ALT_INV_ram~25_q\ $end
$var wire 1 @" \RAM1|ALT_INV_ram~17_q\ $end
$var wire 1 A" \ROM1|ALT_INV_memROM~6_combout\ $end
$var wire 1 B" \ROM1|ALT_INV_memROM~5_combout\ $end
$var wire 1 C" \ROM1|ALT_INV_memROM~4_combout\ $end
$var wire 1 D" \DEC1|ALT_INV_saida[5]~1_combout\ $end
$var wire 1 E" \ROM1|ALT_INV_memROM~3_combout\ $end
$var wire 1 F" \ROM1|ALT_INV_memROM~2_combout\ $end
$var wire 1 G" \ROM1|ALT_INV_memROM~1_combout\ $end
$var wire 1 H" \ROM1|ALT_INV_memROM~0_combout\ $end
$var wire 1 I" \PC|ALT_INV_DOUT\ [8] $end
$var wire 1 J" \PC|ALT_INV_DOUT\ [7] $end
$var wire 1 K" \PC|ALT_INV_DOUT\ [6] $end
$var wire 1 L" \PC|ALT_INV_DOUT\ [5] $end
$var wire 1 M" \PC|ALT_INV_DOUT\ [4] $end
$var wire 1 N" \PC|ALT_INV_DOUT\ [3] $end
$var wire 1 O" \PC|ALT_INV_DOUT\ [2] $end
$var wire 1 P" \PC|ALT_INV_DOUT\ [1] $end
$var wire 1 Q" \PC|ALT_INV_DOUT\ [0] $end
$var wire 1 R" \REGA|ALT_INV_DOUT\ [7] $end
$var wire 1 S" \REGA|ALT_INV_DOUT\ [6] $end
$var wire 1 T" \REGA|ALT_INV_DOUT\ [5] $end
$var wire 1 U" \REGA|ALT_INV_DOUT\ [4] $end
$var wire 1 V" \REGA|ALT_INV_DOUT\ [3] $end
$var wire 1 W" \REGA|ALT_INV_DOUT\ [2] $end
$var wire 1 X" \REGA|ALT_INV_DOUT\ [1] $end
$var wire 1 Y" \REGA|ALT_INV_DOUT\ [0] $end
$upscope $end
$upscope $end
$enddefinitions $end
#0
$dumpvars
x!
09
1:
x;
1<
1=
1>
1?
1@
1A
xB
xZ
x[
x\
x]
x^
0_
0`
1a
0b
0c
0d
0e
0f
0g
0h
0i
0j
0k
0l
0m
0n
0o
0p
0q
0r
0s
0t
0u
0v
0w
1x
1y
0z
0{
0|
1}
0~
0!!
0"!
0#!
0$!
1%!
0&!
0'!
1(!
0)!
1*!
0+!
0,!
0-!
1.!
1/!
00!
01!
02!
03!
14!
05!
06!
07!
08!
09!
0:!
1;!
0<!
1=!
1>!
0?!
0@!
0A!
0B!
0C!
0D!
0E!
1F!
0G!
0H!
0I!
0J!
0K!
0L!
1M!
0N!
0O!
0P!
0Q!
0R!
0S!
1T!
0U!
0V!
0W!
0X!
0Y!
0Z!
0[!
0\!
1]!
0^!
0_!
0`!
0a!
0b!
0c!
1d!
0e!
1w!
1x!
1y!
1z!
1{!
1|!
1}!
1~!
1!"
1""
1#"
1$"
1%"
1&"
1'"
1("
1)"
1*"
1+"
1,"
1-"
1."
1/"
10"
11"
12"
13"
14"
15"
16"
17"
18"
19"
1:"
1;"
1<"
1="
1>"
1?"
1@"
0A"
0B"
1C"
0D"
0E"
1F"
0G"
1H"
x"
x#
x$
0%
xC
xD
xE
0F
0G
0H
0I
0J
0K
0L
0M
0N
0O
1P
1Q
0R
0S
0T
0U
0V
0W
0X
0Y
0f!
0g!
0h!
0i!
0j!
0k!
0l!
0m!
0n!
0o!
0p!
0q!
0r!
0s!
0t!
0u!
0v!
1I"
1J"
1K"
1L"
1M"
1N"
1O"
1P"
1Q"
1R"
1S"
1T"
1U"
1V"
1W"
1X"
1Y"
1&
1'
0(
0)
0*
0+
0,
0-
0.
0/
00
01
02
03
04
05
06
07
08
$end
#20000
1%
1F
1_
1`
1n!
1b
1t!
1?!
0W"
0z!
0Q"
0a
1~
1c
1z
1"!
0%!
0(!
17!
0>!
1E!
1B"
1A"
0{!
0H"
0|!
1W
1O
0F!
1L!
1!!
0}
0/!
1&!
0;!
1>!
1-
18
0M!
1S!
1D"
0C"
1#!
0&!
0T!
1\!
0Q
0P
0]!
1c!
0'
0&
0d!
#40000
0%
0F
0_
0`
#60000
1%
1F
1_
1`
0n!
0b
1m!
1d
18!
0:"
0y!
0P"
1z!
1Q"
1a
0"!
1%!
0z
10!
1:!
1<!
0%"
09"
0'"
1H"
0A"
1{!
1N
0O
0#!
0:!
0<!
1}
1/!
1;!
0>!
08
17
0D"
1%"
19"
1+!
04!
1-!
15!
0=!
16!
0;!
1>!
1Q
1P
0>!
05!
1'
1&
#80000
0%
0F
0_
0`
#100000
1%
1F
1_
1`
1n!
1b
1v!
1u!
0t!
0?!
1W"
0X"
0Y"
0z!
0Q"
0a
0~
0c
1e
1z
1"!
0%!
00!
0+!
14!
15!
07!
1>!
0E!
1'"
1A"
0{!
0H"
1|!
0W
1X
1Y
1O
1F!
0L!
05!
1=!
1f
0!!
0}
0/!
1#!
06!
1:!
1<!
15!
1/
1.
0-
18
0>!
1E!
1M!
0S!
0%"
09"
1D"
1C"
0#!
1&!
0:!
0<!
1+!
0-!
1;!
1>!
0E!
1T!
0\!
0F!
1L!
1%"
19"
0Q
0P
0M!
1S!
1]!
0c!
1F!
0L!
0;!
0>!
1E!
0'
0&
1M!
0S!
1d!
0T!
1\!
0F!
1L!
0]!
1c!
1T!
0\!
0M!
1S!
1]!
0c!
0d!
0T!
1\!
1d!
0]!
1c!
0d!
#120000
0%
0F
0_
0`
#140000
1%
1F
1_
1`
0n!
0b
0m!
0d
1l!
1w
1'!
11!
0="
0@"
0x!
0O"
1y!
1P"
1z!
1Q"
1a
1%!
0e
1(!
0f
1g
0"!
0x
0z
1{
1)!
1,!
13!
16!
0&"
0>"
0("
0F"
1H"
1E"
1{!
0B"
0A"
1M
0N
0O
1h
1f
0g
0,!
06!
0)!
03!
0&!
0%!
0(!
1@!
1|
0.!
1/!
0+!
05!
08
07
16
0h
0)"
0$"
1B"
1A"
1&"
1("
1>"
1,!
16!
1)!
13!
0*!
1>!
0E!
1F!
0L!
1M!
0S!
1T!
0\!
1]!
0c!
1d!
0&"
0("
0>"
1Q
0d!
0]!
0T!
0M!
0F!
1+!
04!
1-!
0+!
14!
15!
1'
05!
15!
#160000
0%
0F
0_
0`
#180000
1%
1F
1_
1`
1n!
1b
0v!
1t!
1?!
0W"
1Y"
0z!
0Q"
0a
1c
1+!
04!
17!
0>!
1E!
1W
0Y
1O
1F!
05!
0/
1-
18
#200000
0%
0F
0_
0`
#220000
1%
1F
1_
1`
0n!
0b
1m!
1d
1v!
0u!
0t!
0?!
1s!
0V"
1W"
1X"
0Y"
0y!
0P"
1z!
1Q"
1a
1z
1~
0+!
14!
15!
0=!
07!
1>!
0E!
0F!
1L!
0|!
0H"
1V
0W
0X
1Y
1N
0O
1M!
1F!
0L!
0>!
05!
1=!
0|
1!!
1/
0.
0-
1,
08
17
1>!
0M!
0C"
1)"
1*!
15!
0=!
0>!
1E!
0F!
1L!
1M!
1T!
1]!
1d!
0)!
1+!
04!
0,!
03!
06!
1:!
1<!
0%"
09"
1&"
1>"
1("
05!
0M!
1S!
1F!
1>!
0E!
0+!
14!
1+!
0-!
15!
1;!
0>!
05!
1=!
0F!
0T!
1\!
0]!
1c!
1>!
0d!
#240000
0%
0F
0_
0`
#260000
1%
1F
1_
1`
1n!
1b
1t!
1?!
0s!
1V"
0W"
0z!
0Q"
0a
0~
0c
1e
0z
0{
17!
0>!
1E!
1F!
0L!
1F"
1H"
1|!
0V
1W
1O
1M!
0S!
0F!
1L!
0f
1g
0!!
0/!
1-
0,
18
1h
0M!
1S!
1T!
0\!
1C"
1)!
1,!
13!
16!
0:!
0<!
1]!
0c!
0T!
1\!
1%"
19"
0&"
0>"
0("
0Q
0]!
1c!
1d!
0+!
1-!
15!
0=!
0;!
1>!
0'
0d!
0>!
#280000
0%
0F
0_
0`
#300000
1%
1F
1_
1`
0n!
0b
0m!
0d
0l!
1k!
0w
1x!
0N"
1O"
1y!
1P"
1z!
1Q"
1a
0e
1f
0g
0h
1i
1L
0M
0N
0O
1j
1h
0i
0f
08
07
06
15
0j
#320000
0%
0F
0_
0`
#340000
1%
1F
1_
1`
1n!
1b
0z!
0Q"
0a
1c
1O
18
#360000
0%
0F
0_
0`
#380000
1%
1F
1_
1`
0n!
0b
1m!
1d
0y!
0P"
1z!
1Q"
1a
1N
0O
08
17
#400000
0%
0F
0_
0`
#420000
1%
1F
1_
1`
1n!
1b
0z!
0Q"
0a
0c
1e
1O
1f
18
#440000
0%
0F
0_
0`
#460000
1%
1F
1_
1`
0n!
0b
0m!
0d
1l!
1w
0x!
0O"
1y!
1P"
1z!
1Q"
1a
0e
0f
1g
1M
0N
0O
0h
1i
1f
0g
08
07
16
1h
0i
1j
0j
#480000
0%
0F
0_
0`
#500000
1%
1F
1_
1`
1n!
1b
0z!
0Q"
0a
1c
1O
18
#520000
0%
0F
0_
0`
#540000
1%
1F
1_
1`
0n!
0b
1m!
1d
0y!
0P"
1z!
1Q"
1a
1N
0O
08
17
#560000
0%
0F
0_
0`
#580000
1%
1F
1_
1`
1n!
1b
0z!
0Q"
0a
0c
1e
1O
0f
1g
18
0h
1i
1j
#600000
0%
0F
0_
0`
#620000
1%
1F
1_
1`
0n!
0b
0m!
0d
0l!
0k!
1j!
1k
0w
1x!
0M"
1N"
1O"
1y!
1P"
1z!
1Q"
1a
0e
1f
0g
1h
0i
0j
1l
0y
1x
0E"
1G"
1K
0L
0M
0N
0O
1m
1j
0l
0h
0f
08
07
06
05
14
0m
#640000
0%
0F
0_
0`
#660000
1%
1F
1_
1`
1n!
1b
0z!
0Q"
0a
1~
1c
1z
0H"
0|!
1O
18
#680000
0%
0F
0_
0`
#700000
1%
1F
1_
1`
0n!
0b
1m!
1d
0y!
0P"
1z!
1Q"
1a
0z
1H"
1N
0O
08
17
#720000
0%
0F
0_
0`
#740000
1%
1F
1_
1`
1n!
1b
0z!
0Q"
0a
0~
0c
1e
1z
0H"
1|!
1O
1f
18
#760000
0%
0F
0_
0`
#780000
1%
1F
1_
1`
0n!
0b
0m!
0d
1l!
1w
0x!
0O"
1y!
1P"
1z!
1Q"
1a
0e
0f
1g
0x
0z
1{
0F"
1H"
1E"
1M
0N
0O
1h
1f
0g
08
07
16
0h
#800000
0%
0F
0_
0`
#820000
1%
1F
1_
1`
1n!
1b
0z!
0Q"
0a
1c
1O
18
#840000
0%
0F
0_
0`
#860000
1%
1F
1_
1`
0n!
0b
1m!
1d
0y!
0P"
1z!
1Q"
1a
1z
1~
0|!
0H"
1N
0O
08
17
#880000
0%
0F
0_
0`
#900000
1%
1F
1_
1`
1n!
1b
0z!
0Q"
0a
0~
0c
1e
0z
0{
1F"
1H"
1|!
1O
0f
1g
18
1h
#920000
0%
0F
0_
0`
#940000
1%
1F
1_
1`
0n!
0b
0m!
0d
0l!
1k!
0w
1x!
0N"
1O"
1y!
1P"
1z!
1Q"
1a
0e
1f
0g
0h
1i
1L
0M
0N
0O
0j
1l
1h
0i
0f
08
07
06
15
1j
0l
1m
0m
#960000
0%
0F
0_
0`
#980000
1%
1F
1_
1`
1n!
1b
0z!
0Q"
0a
1c
1O
18
