QuatusProjects/aula3/simulation/qsim/aula3Atv1.msim.vcd
$comment
	File created using the following command:
		vcd file aula3Atv1.msim.vcd -direction
$end
$date
	Tue Aug 30 15:23:01 2022
$end
$version
	ModelSim Version 2020.1
$end
$timescale
	1ps
$end

$scope module aula3atv1_vhd_vec_tst $end
$var wire 1 ! CLOCK_50 $end
$var wire 1 " KEY [3] $end
$var wire 1 # KEY [2] $end
$var wire 1 $ KEY [1] $end
$var wire 1 % KEY [0] $end
$var wire 1 & LEDR [9] $end
$var wire 1 ' LEDR [8] $end
$var wire 1 ( LEDR [7] $end
$var wire 1 ) LEDR [6] $end
$var wire 1 * LEDR [5] $end
$var wire 1 + LEDR [4] $end
$var wire 1 , LEDR [3] $end
$var wire 1 - LEDR [2] $end
$var wire 1 . LEDR [1] $end
$var wire 1 / LEDR [0] $end
$var wire 1 0 PC_OUT [2] $end
$var wire 1 1 PC_OUT [1] $end
$var wire 1 2 PC_OUT [0] $end
$var wire 1 3 SW [9] $end
$var wire 1 4 SW [8] $end
$var wire 1 5 SW [7] $end
$var wire 1 6 SW [6] $end
$var wire 1 7 SW [5] $end
$var wire 1 8 SW [4] $end
$var wire 1 9 SW [3] $end
$var wire 1 : SW [2] $end
$var wire 1 ; SW [1] $end
$var wire 1 < SW [0] $end

$scope module i1 $end
$var wire 1 = gnd $end
$var wire 1 > vcc $end
$var wire 1 ? unknown $end
$var wire 1 @ devoe $end
$var wire 1 A devclrn $end
$var wire 1 B devpor $end
$var wire 1 C ww_devoe $end
$var wire 1 D ww_devclrn $end
$var wire 1 E ww_devpor $end
$var wire 1 F ww_CLOCK_50 $end
$var wire 1 G ww_KEY [3] $end
$var wire 1 H ww_KEY [2] $end
$var wire 1 I ww_KEY [1] $end
$var wire 1 J ww_KEY [0] $end
$var wire 1 K ww_SW [9] $end
$var wire 1 L ww_SW [8] $end
$var wire 1 M ww_SW [7] $end
$var wire 1 N ww_SW [6] $end
$var wire 1 O ww_SW [5] $end
$var wire 1 P ww_SW [4] $end
$var wire 1 Q ww_SW [3] $end
$var wire 1 R ww_SW [2] $end
$var wire 1 S ww_SW [1] $end
$var wire 1 T ww_SW [0] $end
$var wire 1 U ww_PC_OUT [2] $end
$var wire 1 V ww_PC_OUT [1] $end
$var wire 1 W ww_PC_OUT [0] $end
$var wire 1 X ww_LEDR [9] $end
$var wire 1 Y ww_LEDR [8] $end
$var wire 1 Z ww_LEDR [7] $end
$var wire 1 [ ww_LEDR [6] $end
$var wire 1 \ ww_LEDR [5] $end
$var wire 1 ] ww_LEDR [4] $end
$var wire 1 ^ ww_LEDR [3] $end
$var wire 1 _ ww_LEDR [2] $end
$var wire 1 ` ww_LEDR [1] $end
$var wire 1 a ww_LEDR [0] $end
$var wire 1 b \CLOCK_50~input_o\ $end
$var wire 1 c \KEY[1]~input_o\ $end
$var wire 1 d \KEY[2]~input_o\ $end
$var wire 1 e \KEY[3]~input_o\ $end
$var wire 1 f \SW[4]~input_o\ $end
$var wire 1 g \SW[5]~input_o\ $end
$var wire 1 h \~QUARTUS_CREATED_GND~I_combout\ $end
$var wire 1 i \KEY[0]~input_o\ $end
$var wire 1 j \KEY[0]~inputCLKENA0_outclk\ $end
$var wire 1 k \PC|DOUT[0]~2_combout\ $end
$var wire 1 l \PC|DOUT[1]~0_combout\ $end
$var wire 1 m \PC|DOUT[1]~DUPLICATE_q\ $end
$var wire 1 n \PC|DOUT[2]~1_combout\ $end
$var wire 1 o \PC|DOUT[2]~DUPLICATE_q\ $end
$var wire 1 p \SW[6]~input_o\ $end
$var wire 1 q \ULA1|Add0~18_cout\ $end
$var wire 1 r \ULA1|Add0~1_sumout\ $end
$var wire 1 s \SW[0]~input_o\ $end
$var wire 1 t \DEC1|saida[1]~0_combout\ $end
$var wire 1 u \ROM1|memROM~0_combout\ $end
$var wire 1 v \DEC1|saida[2]~1_combout\ $end
$var wire 1 w \SW[7]~input_o\ $end
$var wire 1 x \ULA1|Add0~2\ $end
$var wire 1 y \ULA1|Add0~5_sumout\ $end
$var wire 1 z \SW[1]~input_o\ $end
$var wire 1 { \SW[8]~input_o\ $end
$var wire 1 | \ULA1|Add0~6\ $end
$var wire 1 } \ULA1|Add0~9_sumout\ $end
$var wire 1 ~ \SW[2]~input_o\ $end
$var wire 1 !! \SW[9]~input_o\ $end
$var wire 1 "! \ULA1|Add0~10\ $end
$var wire 1 #! \ULA1|Add0~13_sumout\ $end
$var wire 1 $! \SW[3]~input_o\ $end
$var wire 1 %! \PC|DOUT\ [2] $end
$var wire 1 &! \PC|DOUT\ [1] $end
$var wire 1 '! \PC|DOUT\ [0] $end
$var wire 1 (! \REGA|DOUT\ [3] $end
$var wire 1 )! \REGA|DOUT\ [2] $end
$var wire 1 *! \REGA|DOUT\ [1] $end
$var wire 1 +! \REGA|DOUT\ [0] $end
$var wire 1 ,! \PC|ALT_INV_DOUT[2]~DUPLICATE_q\ $end
$var wire 1 -! \PC|ALT_INV_DOUT[1]~DUPLICATE_q\ $end
$var wire 1 .! \ALT_INV_SW[9]~input_o\ $end
$var wire 1 /! \ALT_INV_SW[8]~input_o\ $end
$var wire 1 0! \ALT_INV_SW[7]~input_o\ $end
$var wire 1 1! \ALT_INV_SW[6]~input_o\ $end
$var wire 1 2! \ROM1|ALT_INV_memROM~0_combout\ $end
$var wire 1 3! \DEC1|ALT_INV_saida[1]~0_combout\ $end
$var wire 1 4! \PC|ALT_INV_DOUT\ [2] $end
$var wire 1 5! \PC|ALT_INV_DOUT\ [1] $end
$var wire 1 6! \PC|ALT_INV_DOUT\ [0] $end
$var wire 1 7! \REGA|ALT_INV_DOUT\ [3] $end
$var wire 1 8! \REGA|ALT_INV_DOUT\ [2] $end
$var wire 1 9! \REGA|ALT_INV_DOUT\ [1] $end
$var wire 1 :! \REGA|ALT_INV_DOUT\ [0] $end
$upscope $end
$upscope $end
$enddefinitions $end
#0
$dumpvars
x!
0=
1>
x?
1@
1A
1B
1C
1D
1E
xF
xb
xc
xd
xe
xf
xg
xh
0i
0j
1k
0l
0m
0n
0o
0p
0q
0r
0s
1t
1u
0v
0w
0x
0y
0z
0{
0|
0}
0~
0!!
0"!
0#!
0$!
1,!
1-!
1.!
1/!
10!
11!
02!
03!
x"
x#
x$
0%
03
04
05
06
x7
x8
09
0:
0;
0<
00
01
02
1&
0'
1(
1)
0*
0+
0,
0-
0.
0/
xG
xH
xI
0J
0K
0L
0M
0N
xO
xP
0Q
0R
0S
0T
0U
0V
0W
1X
0Y
1Z
1[
0\
0]
0^
0_
0`
0a
0%!
0&!
0'!
0(!
0)!
0*!
0+!
14!
15!
16!
17!
18!
19!
1:!
$end
#20000
1%
1J
1i
1j
1'!
06!
0k
1l
0t
1v
13!
1W
12
1Y
0Z
0(
1'
#40000
0%
15
16
0J
1N
1M
1w
1p
0i
0j
01!
00!
1y
1r
#60000
1%
1J
1i
1j
0'!
1&!
1m
1+!
1*!
09!
0:!
0-!
05!
16!
1k
0r
1x
0y
1|
1`
1a
1V
0W
1}
1y
1/
1.
02
11
#80000
0%
0J
0i
0j
#100000
1%
1J
1i
1j
1'!
0+!
1)!
08!
1:!
06!
0k
0l
1n
1r
0x
0}
1"!
1_
0a
1W
1#!
0y
0/
1-
12
#120000
0%
0J
0i
0j
#140000
1%
1J
1i
1j
0'!
0&!
0m
1%!
1o
1+!
0*!
0)!
1(!
07!
18!
19!
0:!
0,!
04!
1-!
15!
16!
1k
1q
0|
1^
0_
0`
1a
1U
0V
0W
1}
0"!
0r
1x
0[
1/
0.
0-
1,
02
01
10
1y
0#!
0)
#160000
0%
05
06
14
0J
0N
0M
1L
1{
0w
0p
0i
0j
11!
10!
0/!
0}
0y
1|
1r
1}
#180000
1%
1J
1i
1j
1'!
1)!
0(!
17!
08!
06!
0k
1l
0u
0v
0}
1"!
1#!
12!
0^
1_
1W
0#!
1-
0,
12
0Y
0X
0'
0&
#200000
0%
0J
0i
0j
#220000
1%
1J
1i
1j
0'!
1&!
1m
0-!
05!
16!
1k
1V
0W
02
11
#240000
0%
15
0J
1M
1w
0i
0j
00!
1y
0|
1}
0"!
1#!
#260000
1%
1J
1i
1j
1'!
06!
0k
0l
0n
1W
12
#280000
0%
16
0J
1N
1p
0i
0j
01!
0r
#300000
1%
1J
1i
1j
0'!
0&!
0m
0%!
0o
1,!
14!
1-!
15!
16!
1k
1r
0}
1"!
0q
1t
1u
0y
1|
0#!
02!
03!
0U
0V
0W
1}
0r
1#!
1[
0+!
0)!
02
01
00
18!
1:!
1)
1X
1Z
1r
0x
0}
1(
1&
0_
0a
1y
0|
0/
0-
1}
0"!
0#!
#320000
0%
06
05
04
13
0J
0N
0M
0L
1K
1!!
0{
0w
0p
0i
0j
11!
10!
1/!
0.!
1#!
0}
0y
0r
#340000
1%
1J
1i
1j
1'!
06!
0k
1l
0t
1v
13!
1W
12
1Y
0Z
0(
1'
#360000
0%
16
0J
1N
1p
0i
0j
01!
1r
#380000
1%
1J
1i
1j
0'!
1&!
1m
1+!
1(!
07!
0:!
0-!
05!
16!
1k
0r
1x
0#!
1^
1a
1V
0W
1y
1/
1,
02
11
#400000
0%
06
15
0J
0N
1M
1w
0p
0i
0j
11!
00!
0y
1|
1r
0x
1y
0|
1}
0}
#420000
1%
1J
1i
1j
1'!
1*!
0(!
17!
09!
06!
0k
0l
1n
0y
1|
1#!
0^
1`
1W
1}
1.
0,
12
#440000
0%
16
0J
1N
1p
0i
0j
01!
0r
1x
1y
#460000
1%
1J
1i
1j
0'!
0&!
0m
1%!
1o
0+!
1)!
1(!
07!
08!
1:!
0,!
04!
1-!
15!
16!
1k
1q
0y
0x
1"!
1^
1_
0a
1U
0V
0W
0#!
1y
0|
1r
0[
0/
1-
1,
02
01
10
0}
0)
#480000
0%
06
05
14
0J
0N
0M
1L
1{
0w
0p
0i
0j
11!
10!
0/!
1}
0"!
0y
1|
0r
1x
1y
0}
1"!
1#!
0#!
#500000
1%
1J
1i
1j
1'!
0)!
0(!
17!
18!
06!
0k
1l
0u
0v
1}
0"!
1#!
12!
0^
0_
1W
0#!
0-
0,
12
0Y
0X
0'
0&
#520000
0%
16
0J
1N
1p
0i
0j
01!
1r
0x
0y
#540000
1%
1J
1i
1j
0'!
1&!
1m
0-!
05!
16!
1k
1V
0W
02
11
#560000
0%
06
15
0J
0N
1M
1w
0p
0i
0j
11!
00!
1y
0|
0r
1x
0y
1|
0}
1}
#580000
1%
1J
1i
1j
1'!
06!
0k
0l
0n
1W
12
#600000
0%
16
0J
1N
1p
0i
0j
01!
1r
0x
1y
0|
0}
#620000
1%
1J
1i
1j
0'!
0&!
0m
0%!
0o
1,!
14!
1-!
15!
16!
1k
0r
1x
1}
0q
1t
1u
0y
1|
1#!
02!
03!
0U
0V
0W
0}
1"!
1r
0x
1y
1[
0*!
02
01
00
0y
0#!
19!
1)
1X
1Z
1y
0|
1(
1&
0`
1}
0"!
0.
1#!
#640000
0%
06
05
04
03
0J
0N
0M
0L
0K
0!!
0{
0w
0p
0i
0j
11!
10!
1/!
1.!
0#!
0}
0y
0r
#660000
1%
1J
1i
1j
1'!
06!
0k
1l
0t
1v
13!
1W
12
1Y
0Z
0(
1'
#680000
0%
16
0J
1N
1p
0i
0j
01!
1r
#700000
1%
1J
1i
1j
0'!
1&!
1m
1+!
0:!
0-!
05!
16!
1k
0r
1x
1a
1V
0W
1y
1/
02
11
#720000
0%
06
15
0J
0N
1M
1w
0p
0i
0j
11!
00!
0y
1|
1r
0x
1y
0|
1}
0}
#740000
1%
1J
1i
1j
1'!
1*!
09!
06!
0k
0l
1n
0y
1|
1`
1W
1}
1.
12
#760000
0%
16
0J
1N
1p
0i
0j
01!
0r
1x
1y
#780000
1%
1J
1i
1j
0'!
0&!
0m
1%!
1o
0+!
1)!
08!
1:!
0,!
04!
1-!
15!
16!
1k
1q
0y
1#!
0x
1"!
1_
0a
1U
0V
0W
0#!
1y
0|
1r
0[
0/
1-
02
01
10
0}
0)
#800000
0%
06
05
14
0J
0N
0M
1L
1{
0w
0p
0i
0j
11!
10!
0/!
1}
0"!
0y
1|
0r
1x
1y
0}
1"!
1#!
0#!
#820000
1%
1J
1i
1j
1'!
0)!
18!
06!
0k
1l
0u
0v
1}
0"!
12!
0_
1W
1#!
0-
12
0Y
0X
0'
0&
#840000
0%
16
0J
1N
1p
0i
0j
01!
1r
0x
0y
#860000
1%
1J
1i
1j
0'!
1&!
1m
0-!
05!
16!
1k
1V
0W
02
11
#880000
0%
06
15
0J
0N
1M
1w
0p
0i
0j
11!
00!
1y
0|
0r
1x
0y
1|
0}
1}
#900000
1%
1J
1i
1j
1'!
06!
0k
0l
0n
1W
12
#920000
0%
16
0J
1N
1p
0i
0j
01!
1r
0x
1y
0|
0}
#940000
1%
1J
1i
1j
0'!
0&!
0m
0%!
0o
1,!
14!
1-!
15!
16!
1k
0r
1x
1}
0q
1t
1u
0y
1|
0#!
02!
03!
0U
0V
0W
0}
1"!
1r
0x
1y
1[
0*!
02
01
00
0y
1#!
19!
1)
1X
1Z
1y
0|
1(
1&
0`
1}
0"!
0.
0#!
#960000
0%
06
05
04
13
0J
0N
0M
0L
1K
1!!
0{
0w
0p
0i
0j
11!
10!
1/!
0.!
1#!
0}
0y
0r
#980000
1%
1J
1i
1j
1'!
06!
0k
1l
0t
1v
13!
1W
12
1Y
0Z
0(
1'
